{
    "$schema": "https://schema.management.azure.com/schemas/2015-01-01/deploymentTemplate.json#",
    "contentVersion": "1.0.0.2",
    "parameters": {
      "adminPassword": {
        "type": "securestring",
        "metadata": {
          "description": "Password for the Virtual Machine. SSH key is recommended."
        }
      },
      "privateIPAddress": {
        "type": "string",
        "defaultValue": "10.51.1.4",
        "metadata": {
          "description": "Private IP of the DB server"
        }
      }
    },
    "variables": {
        "adminUsername": "teamhel",
        "vmName": "helapivm",
        "location": "[resourceGroup().location]",
        "nicName": "[concat(variables('vmName'),'nic')]",
        "vnetName": "helvnet",
        "vmSize": "Standard_B1ms",
        "subnetName": "apisubnet",
        "subnetRef": "[resourceId('Microsoft.Network/virtualNetworks/subnets', variables('vnetName'), variables('subnetName'))]",
        "imagePublisher": "Canonical",
        "imageOffer": "UbuntuServer",
        "ubuntuOSVersion": "16.04-LTS",
        "blobURL": "https://testblobdeploy.blob.core.windows.net/bobcontainer/",
        "SASToken": "?sp=rl&se=2019-04-01T08:48:00Z&sv=2018-03-28&sig=qtZgFTEb6jfWqb122yjnbZPHrlHb4RqBXD94mB57wdA%3D&sr=c",
        "apiScript": "deploy-apivm.sh",
        "apicommandToExecuteOld": "sh deploy-apivm.sh -e 'prod' -m '10.51.1.4' -s '?sp=rl&se=2019-04-01T08:48:00Z&sv=2018-03-28&sig=qtZgFTEb6jfWqb122yjnbZPHrlHb4RqBXD94mB57wdA%3D&sr=c' -u 'https://testblobdeploy.blob.core.windows.net/bobcontainer'",
        "A": "sh deploy-apivm.sh -e 'prod' -m '",
        "B": "' -s '?sp=rl&se=2019-04-01T08:48:00Z&sv=2018-03-28&sig=qtZgFTEb6jfWqb122yjnbZPHrlHb4RqBXD94mB57wdA%3D&sr=c' -u 'https://testblobdeploy.blob.core.windows.net/bobcontainer'",
        "apicommandToExecute": "[concat(variables('A'), parameters('privateIPAddress'),variables('B'))]",
        "sku": "Standard",
        "publicIPAddressName": "hellb-pip",
        "backendPoolvm": "helapivm",
        "backendPoolIP": "",
        "backendPoolVnet": "helvnet",
        "loadBalancerName": "hel-lb",
        "lbID": "[resourceId('Microsoft.Network/loadBalancers', variables('loadBalancerName'))]"
      },
    
    "resources": [
        {
          "type": "Microsoft.Network/networkInterfaces",
          "apiVersion": "2017-10-01",
          "name": "[variables('nicName')]",
          "location": "[variables('location')]",
          "dependsOn": ["[variables('loadBalancerName')]"],
          "properties": {
            "ipConfigurations": [
              {
                "name": "ipconfig1",
                "properties": {
                  "privateIPAllocationMethod": "Dynamic",
                    "subnet": {
                    "id": "[variables('subnetRef')]"
                   },
                   "loadBalancerBackendAddressPools": [
                    {
                      "id": "[concat(variables('lbID'), '/backendAddressPools/BackendPool1')]"
                    }
                  ]
                }
              }
            ]
          }
        },
        {
            "apiVersion": "2018-08-01",
            "name": "[variables('loadBalancerName')]",
            "type": "Microsoft.Network/loadBalancers",
            "location": "[variables('location')]",
            "sku": {
                "name": "[variables('sku')]"
            },
            "dependsOn": [
                "[concat('Microsoft.Network/publicIPAddresses/', variables('publicIPAddressName'))]"
            ],
            "tags": {},
            "properties": {
                "frontendIPConfigurations": [
                    {
                        "name": "LoadBalancerFrontEnd",
                        "properties": {
                            "publicIPAddress": {
                                "id": "[resourceId('Microsoft.Network/publicIPAddresses', variables('publicIPAddressName'))]"
                            }
                        }
                    }
                ],
                "backendAddressPools": [
                    {
                      "name": "BackendPool1"
                    }
                ],
                
                "loadBalancingRules": [
                    {
                      "properties": {
                        "frontendIPConfiguration": {
                          "id": "[concat(resourceId('Microsoft.Network/loadBalancers', variables('loadBalancerName')), '/frontendIpConfigurations/loadBalancerFrontEnd')]"
                        },
                        "backendAddressPool": {
                            "id": "[concat(resourceId('Microsoft.Network/loadBalancers', variables('loadBalancerName')), '/backendAddressPools/BackendPool1')]"
                        },
                        "probe": {
                          "id": "[concat(resourceId('Microsoft.Network/loadBalancers', variables('loadBalancerName')), '/probes/lbprobe')]"
                        },
                        "protocol": "Tcp",
                        "frontendPort": 80,
                        "backendPort": 80,
                        "idleTimeoutInMinutes": 15
                      },
                      "name": "lbrule"
                    }
                  ],
                  "probes": [
                    {
                      "properties": {
                        "protocol": "Tcp",
                        "port": 80,
                        "intervalInSeconds": 15,
                        "numberOfProbes": 2
                      },
                      "name": "lbprobe"
                    }
                  ]
            }
        },
        {
            "apiVersion": "2018-08-01",
            "type": "Microsoft.Network/publicIPAddresses",
            "name": "[variables('publicIPAddressName')]",
            "location": "[variables('location')]",
            "sku": {
                "name": "[variables('sku')]"
            },
            "tags": {},
            "properties": {
                "publicIPAllocationMethod": "Static",
                "publicIPAddressVersion": "IPv4",
                "dnsSettings": {
                    "domainNameLabel": "teamhel-lb-pip"                
                  }
                
            }
        },
        {
          "type": "Microsoft.Compute/virtualMachines",
          "name": "[variables('vmName')]",
          "apiVersion": "2018-10-01",
          "location": "[variables('location')]",
          "dependsOn": [
            "[concat('Microsoft.Network/networkInterfaces/', variables('nicName'))]"
          ],
          "properties": {
            "hardwareProfile": {
              "vmSize": "[variables('vmSize')]"
            },
            "osProfile": {
              "computerName": "[variables('vmName')]",
              "adminUsername": "[variables('adminUsername')]",
              "adminPassword": "[parameters('adminPassword')]"
              },
            "storageProfile": {
              "imageReference": {
                "publisher": "[variables('imagePublisher')]",
                "offer": "[variables('imageOffer')]",
                "sku": "[variables('ubuntuOSVersion')]",
                "version": "latest"
              },
              "osDisk": {
                "createOption": "FromImage"
              },
              "dataDisks": [
                {
                  "diskSizeGB": 10,
                  "lun": 0,
                  "createOption": "Empty"
                }
              ]
            },
            "networkProfile": {
              "networkInterfaces": [
                {
                  "id": "[resourceId('Microsoft.Network/networkInterfaces',variables('nicName'))]"
                }
              ]
            },
            "diagnosticsProfile": {
              "bootDiagnostics": {}
            }
          }
        },
        {
          "type": "Microsoft.Compute/virtualMachines/extensions",
          "name": "[concat(variables('vmName'), '/config')]",          
          "apiVersion": "2018-10-01",
          "location": "[variables('location')]",
          "dependsOn": [
            "[concat('Microsoft.Compute/virtualMachines/', variables('vmName'))]"
          ],
          "properties": {
            "publisher": "Microsoft.Azure.Extensions",
            "type": "CustomScript",
            "typeHandlerVersion": "2.0",
            "autoUpgradeMinorVersion": true,
            "settings": {
              "fileUris": [
                "https://testblobdeploy.blob.core.windows.net/bobcontainer/deploy-apivm.sh?sp=r&st=2019-03-28T08:45:36Z&se=2019-05-09T15:45:36Z&spr=https&sv=2018-03-28&sig=yDDMIW0Jn7WqoVSjaFwxoGDrdAqo2oUFLR5XGThsSRw%3D&sr=b"
              ],
              "commandToExecute": "[variables('apicommandToExecute')]"
            }
            }
          }
    ],
    "outputs": {
      "privateIPAddress": {
        "type": "string",
        "value": "[reference(concat(variables('nicName'))).ipConfigurations[0].properties.privateIPAddress]"
      }
    }
  }
  