{
  "$schema": "http://schema.management.azure.com/schemas/2015-01-01/deploymentParameters.json#",
  "contentVersion": "1.0.0.0",
  "parameters": {
  
    "adminPassword": {
      "reference": {
        "keyVault": {
          "id": "/subscriptions/8662649f-314e-40f0-a3d9-6453ad460fbf/resourceGroups/hel-task3-rg/providers/Microsoft.KeyVault/vaults/helkey3"
        },
        "secretName": "adminPassword"
      }
    }

  }
}
