{
    "$schema": "https://schema.management.azure.com/schemas/2015-01-01/deploymentTemplate.json#",
    "contentVersion": "1.0.0.0",
    "parameters": {
        "webapp_name": {
            "defaultValue": "gavinwebapp123",
            "type": "string"
        },
        "serverfarms_hel_serviceplan_name": {
            "defaultValue": "gavintest123",
            "type": "string"
        },
        "config_web_name": {
            "defaultValue": "webrating",
            "type": "string"
        },       
        "registries_helcontainer_name": {
            "defaultValue": "gavintest",
            "type": "string"
        },
        "hostNameBindings1": {
            "defaultValue": "teamhel1234.azure.nc-tap.com",
            "type": "string"
        },
        "hostNameBindings_hel_webapp.azurewebsites.net_name": {
            "defaultValue": "gavintest1234.azurewebsites.net",
            "type": "string"
        }
        
    },
    "variables": {
       "imageLocation": "[concat('DOCKER|', parameters('registries_helcontainer_name'),'.azurecr.io/', parameters('config_web_name'),':v1')]",
       "apiServerAddress": "x.x.x.x"
    },
    "resources": [
        {
            "type": "Microsoft.Web/serverfarms",
            "sku": {
                "name": "B1",
                "tier": "Basic",
                "size": "B1",
                "family": "B",
                "capacity": 1
            },
            "kind": "linux",
            "name": "[parameters('serverfarms_hel_serviceplan_name')]",
            "apiVersion": "2018-02-01",
            "location": "[resourceGroup().location]",
            "properties": {
                "name": "[parameters('serverfarms_hel_serviceplan_name')]",
                "targetWorkerCount": 0,
                "targetWorkerSizeId": 0
            },
            "dependsOn": []
        },
        {
            "type": "Microsoft.Web/sites",
            "kind": "app,linux,container",
            "name": "[parameters('webapp_name')]",
            "apiVersion": "2016-03-01",
            "location": "[resourceGroup().location]",
            "properties": {
                "enabled": true,
                "hostNameSslStates": [
                    {
                        "name": "[concat(parameters('webapp_name'),'.azurewebsites.net')]",
                        "sslState": "Disabled",
                        "hostType": "Standard"
                    },
                    {
                        "name": "[concat(parameters('webapp_name'),'.scm.azurewebsites.net')]",
                        "sslState": "Disabled",
                        "virtualIP": null,
                        "thumbprint": null,
                        "toUpdate": null,
                        "hostType": "Repository"
                    },
                    {
                        "name": "[parameters('hostNameBindings1')]",
                        "sslState": "Disabled",
                        "virtualIP": null,
                        "thumbprint": null,
                        "toUpdate": null,
                        "hostType": "Standard"
                    }
                ],
                "serverFarmId": "[resourceId('Microsoft.Web/serverfarms', parameters('serverfarms_hel_serviceplan_name'))]",
                "reserved": true,
                "siteConfig": null,
                "scmSiteAlsoStopped": false,
                "hostingEnvironmentProfile": null,
                "clientAffinityEnabled": true,
                "clientCertEnabled": false,
                "hostNamesDisabled": false,
                "containerSize": 0,
                "dailyMemoryTimeQuota": 0,
                "cloningInfo": null,
                "httpsOnly": false
            },
            "dependsOn": [
                "[resourceId('Microsoft.Web/serverfarms', parameters('serverfarms_hel_serviceplan_name'))]"
            ]
        },
        {
            "type": "Microsoft.Web/sites/config",
            "name": "[concat(parameters('webapp_name'), '/', parameters('config_web_name'))]",
            "apiVersion": "2016-08-01",
            "location": "[resourceGroup().location]",
            "scale": null,
            "properties": {
                "numberOfWorkers": 1,
                "defaultDocuments": [
                    "Default.htm",
                    "Default.html",
                    "Default.asp",
                    "index.htm",
                    "index.html",
                    "iisstart.htm",
                    "default.aspx",
                    "index.php",
                    "hostingstart.html"
                ],
                "netFrameworkVersion": "v4.0",
                "phpVersion": "",
                "pythonVersion": "",
                "nodeVersion": "",
                "linuxFxVersion": "[variables('imageLocation')]",
                "windowsFxVersion": null,
                "requestTracingEnabled": false,
                "remoteDebuggingEnabled": false,
                "remoteDebuggingVersion": "VS2017",
                "httpLoggingEnabled": false,
                "logsDirectorySizeLimit": 35,
                "detailedErrorLoggingEnabled": false,
                "publishingUsername": null,
                "publishingPassword": null,
                "appSettings": [
                    {
                    "name": "APISERVER",
                    "value": "[variables('apiServerAddress')]"
                    }
                ],
                "azureStorageAccounts": {},
                "metadata": null,
                "connectionstrings": null,
                "machineKey": null,
                "handlerMappings": null,
                "documentRoot": null,
                "scmType": "None",
                "use32BitWorkerProcess": true,
                "webSocketsEnabled": false,
                "alwaysOn": false,
                "javaVersion": null,
                "javaContainer": null,
                "javaContainerVersion": null,
                "appCommandLine": "",
                "managedPipelineMode": "Integrated",
                "virtualApplications": [
                    {
                        "virtualPath": "/",
                        "physicalPath": "site\\wwwroot",
                        "preloadEnabled": false,
                        "virtualDirectories": null
                    }
                ],
                "winAuthAdminState": 0,
                "winAuthTenantState": 0,
                "customAppPoolIdentityAdminState": false,
                "customAppPoolIdentityTenantState": false,
                "runtimeADUser": null,
                "runtimeADUserPassword": null,
                "loadBalancing": "LeastRequests",
                "routingRules": [],
                "experiments": {
                    "rampUpRules": []
                },
                "limits": null,
                "autoHealEnabled": false,
                "autoHealRules": null,
                "tracingOptions": null,
                "vnetName": "",
                "siteAuthEnabled": false,
                "siteAuthSettings": {
                    "enabled": null,
                    "unauthenticatedClientAction": null,
                    "tokenStoreEnabled": null,
                    "allowedExternalRedirectUrls": null,
                    "defaultProvider": null,
                    "clientId": null,
                    "clientSecret": null,
                    "clientSecretCertificateThumbprint": null,
                    "issuer": null,
                    "allowedAudiences": null,
                    "additionalLoginParams": null,
                    "isAadAutoProvisioned": false,
                    "googleClientId": null,
                    "googleClientSecret": null,
                    "googleOAuthScopes": null,
                    "facebookAppId": null,
                    "facebookAppSecret": null,
                    "facebookOAuthScopes": null,
                    "twitterConsumerKey": null,
                    "twitterConsumerSecret": null,
                    "microsoftAccountClientId": null,
                    "microsoftAccountClientSecret": null,
                    "microsoftAccountOAuthScopes": null
                },
                "cors": null,
                "push": null,
                "apiDefinition": null,
                "autoSwapSlotName": null,
                "localMySqlEnabled": false,
                "managedServiceIdentityId": null,
                "xManagedServiceIdentityId": null,
                "ipSecurityRestrictions": null,
                "scmIpSecurityRestrictions": null,
                "scmIpSecurityRestrictionsUseMain": null,
                "http20Enabled": false,
                "minTlsVersion": "1.2",
                "ftpsState": "AllAllowed",
                "reservedInstanceCount": 0
            },
            "dependsOn": [
                "[resourceId('Microsoft.Web/sites', parameters('webapp_name'))]"
            ]
        }
        
    ]
}